{
    "apps" : [{
        "name"        : "diameterServer",
        "script"      : "bin/diameterServer.js",
        "instances"   : 5,
        "args"        : [],
        "watch"       : false,
        "node_args"   : "",
        "merge_logs"  : true,
        "env": {
            "NODE_ENV": "production",
            "ROLE"    : "diameterServer",
            "DIAMETER_DICTIONARY": `${process.cwd()}/src/core/manager/diameter/dictionary.json`,
        }
    }],
    "deploy" : {
        "production" : {
            "key"  : "~/.ssh/deploy.pem",
            "user" : "nodeuser",
            "host" : [ "10.20.1.30", "10.20.1.32" ],
            "ref"  : "origin/bypass",
            "repo" : "git@bitbucket.org:libertywireless/liberty-cms.git",
            "path" : "/home/nodeuser",
            "cwd"  : "/home/nodeuser/current",
            "ssh_options": ["StrictHostKeyChecking=no", "PasswordAuthentication=no"],
//            "post-deploy" : "npm install && pm2 startOrGracefulReload diameter_production.json",
            "post-deploy" : "pm2 startOrGracefulReload diameter_production.json",
            "env"  : {
                "NODE_ENV": "production"
            }
        }
    }
}
